digraph vpbroadcastq {
    label="vpbroadcastq a b, _mm256_broadcastq_epi64(a)"
    labelloc="t"
    node [shape=record]
    splines="line"

    graph [pad="0.5", ranksep="0.5"]
    a [label="
    <a0> a0|<a1> a1|<a2> a2|<a3> a3
    "]
    b [label="
    <b0> b0|<b1> b1|<b2> b2|<b3> b3
    "]

    
    a:a0 -> b:b0
    a:a0 -> b:b1  [constraint=false]
    a:a0 -> b:b2  [constraint=false]
    a:a0 -> b:b3  [constraint=false]
}
